Level,Starting Mode,Switches,Shortcuts,Lives Lost,Deaths,Duration in Sec,Duration Local in Sec,Duration Global in Sec,Starting Timestamp,Finishing Timestamp,Switch Timestamps,Shortcut Timestamps
1,GLOBAL,0,0,0,0,10.8249,0,10.8249,6/20/2018 11:26:32 AM,6/20/2018 11:26:42 AM,,
2,GLOBAL,0,1,0,0,5.893449,0,5.893449,6/20/2018 11:26:43 AM,6/20/2018 11:26:49 AM,,11:26:48
3,GLOBAL,0,3,0,0,8.646723,0,8.646723,6/20/2018 11:26:50 AM,6/20/2018 11:26:58 AM,,11:26:53 || 11:26:56 || 11:26:57
4,GLOBAL,0,1,1,0,16.27789,0,16.27789,6/20/2018 11:26:59 AM,6/20/2018 11:27:16 AM,,11:27:02
5,GLOBAL,0,6,2,0,38.73937,0,38.73937,6/20/2018 11:27:17 AM,6/20/2018 11:27:56 AM,,11:27:20 || 11:27:24 || 11:27:29 || 11:27:35 || 11:27:47 || 11:27:49
6,GLOBAL,0,9,2,0,59.87498,0,59.87498,6/20/2018 11:27:57 AM,6/20/2018 11:28:58 AM,,11:28:04 || 11:28:17 || 11:28:20 || 11:28:30 || 11:28:36 || 11:28:39 || 11:28:45 || 11:28:45 || 11:28:57
7,GLOBAL,0,2,0,0,8.112306,0,8.112306,6/20/2018 11:28:59 AM,6/20/2018 11:29:07 AM,,11:29:01 || 11:29:06
8,GLOBAL,0,3,1,0,23.48127,0,23.48127,6/20/2018 11:29:08 AM,6/20/2018 11:29:32 AM,,11:29:15 || 11:29:30 || 11:29:32
9,GLOBAL,0,7,1,0,57.28163,0,57.28163,6/20/2018 11:29:33 AM,6/20/2018 11:30:31 AM,,11:29:37 || 11:29:41 || 11:29:55 || 11:29:59 || 11:30:12 || 11:30:25 || 11:30:26
10,GLOBAL,0,10,2,0,68.0826,0,68.0826,6/20/2018 11:30:32 AM,6/20/2018 11:31:41 AM,,11:30:34 || 11:30:34 || 11:30:44 || 11:30:44 || 11:30:51 || 11:30:54 || 11:30:59 || 11:31:38 || 11:31:39 || 11:31:40
11,GLOBAL,0,4,0,0,15.74543,0,15.74543,6/20/2018 11:31:43 AM,6/20/2018 11:31:59 AM,,11:31:47 || 11:31:50 || 11:31:57 || 11:31:58
12,GLOBAL,0,13,8,4,217.3015,0,217.3015,6/20/2018 11:34:12 AM,,,11:32:38 || 11:32:40 || 11:32:53 || 11:33:08 || 11:33:23 || 11:33:29 || 11:33:31 || 11:33:53 || 11:34:00 || 11:34:01 || 11:34:05 || 11:34:08 || 11:34:24
13,GLOBAL,0,7,4,1,149.9462,0,149.9462,6/20/2018 11:35:17 AM,6/20/2018 11:37:22 AM,,11:35:51 || 11:35:56 || 11:36:20 || 11:36:40 || 11:37:06 || 11:37:07 || 11:37:21
,,,,
,,,,

