Level,Starting Mode,Switches,Shortcuts,Lives Lost,Deaths,Duration in Sec,Duration Local in Sec,Duration Global in Sec,Starting Timestamp,Finishing Timestamp,Switch Timestamps,Shortcut Timestamps
1,GLOBAL,0,0,0,0,7.740266,0,7.740266,6/18/2018 3:39:43 PM,6/18/2018 3:39:50 PM,,
2,GLOBAL,0,1,0,0,15.01818,0,15.01818,6/18/2018 3:39:52 PM,6/18/2018 3:40:07 PM,,15:40:06
3,GLOBAL,0,1,2,0,27.68776,0,27.68776,6/18/2018 3:40:09 PM,6/18/2018 3:40:37 PM,,15:40:36
4,GLOBAL,0,2,1,0,22.7655,0,22.7655,6/18/2018 3:40:39 PM,6/18/2018 3:41:02 PM,,15:40:44 || 15:41:00
5,GLOBAL,0,8,1,0,113.4706,0,113.4706,6/18/2018 3:41:03 PM,6/18/2018 3:42:57 PM,,15:41:09 || 15:41:20 || 15:41:33 || 15:42:00 || 15:42:28 || 15:42:28 || 15:42:35 || 15:42:46
6,GLOBAL,0,16,1,0,126.8342,0,126.8342,6/18/2018 3:42:58 PM,6/18/2018 3:45:05 PM,,15:43:04 || 15:43:41 || 15:43:45 || 15:44:02 || 15:44:06 || 15:44:13 || 15:44:13 || 15:44:15 || 15:44:17 || 15:44:18 || 15:44:33 || 15:44:39 || 15:44:43 || 15:44:45 || 15:45:00 || 15:45:03
7,GLOBAL,0,9,1,0,43.74074,0,43.74074,6/18/2018 3:45:07 PM,6/18/2018 3:45:51 PM,,15:45:11 || 15:45:27 || 15:45:35 || 15:45:38 || 15:45:43 || 15:45:48 || 15:45:48 || 15:45:50 || 15:45:50
8,GLOBAL,0,2,0,0,11.01281,0,11.01281,6/18/2018 3:45:53 PM,6/18/2018 3:46:04 PM,,15:45:59 || 15:46:04
9,GLOBAL,0,4,1,0,56.27516,0,56.27516,6/18/2018 3:46:05 PM,6/18/2018 3:47:02 PM,,15:46:25 || 15:46:38 || 15:46:43 || 15:46:58
10,GLOBAL,0,12,0,0,65.75709,0,65.75709,6/18/2018 3:47:03 PM,6/18/2018 3:48:09 PM,,15:47:07 || 15:47:07 || 15:47:13 || 15:47:16 || 15:47:42 || 15:47:55 || 15:48:01 || 15:48:01 || 15:48:01 || 15:48:02 || 15:48:04 || 15:48:09
11,GLOBAL,0,2,1,0,41.09733,0,41.09733,6/18/2018 3:48:12 PM,6/18/2018 3:48:53 PM,,15:48:17 || 15:48:53
12,GLOBAL,0,20,5,2,406.7278,0,406.7278,6/18/2018 3:54:30 PM,6/18/2018 3:55:52 PM,,15:49:30 || 15:49:34 || 15:49:44 || 15:50:51 || 15:50:52 || 15:51:00 || 15:51:14 || 15:51:28 || 15:52:54 || 15:53:01 || 15:53:23 || 15:53:47 || 15:53:57 || 15:54:08 || 15:54:10 || 15:54:20 || 15:55:03 || 15:55:04 || 15:55:35 || 15:55:39
13,GLOBAL,0,0,0,0,22.07622,0,22.07622,6/18/2018 3:55:55 PM,,,
,,,,
,,,,

