Level,Starting Mode,Switches,Shortcuts,Lives Lost,Deaths,Duration in Sec,Duration Local in Sec,Duration Global in Sec,Starting Timestamp,Finishing Timestamp,Switch Timestamps,Shortcut Timestamps
1,LOCAL,0,0,0,0,20.50947,20.50947,0,6/19/2018 10:37:18 AM,6/19/2018 10:37:38 AM,,
2,LOCAL,0,2,0,0,21.79123,21.79123,0,6/19/2018 10:37:40 AM,6/19/2018 10:38:02 AM,,10:37:47 || 10:37:59
3,LOCAL,0,3,0,0,44.22911,44.22911,0,6/19/2018 10:38:03 AM,6/19/2018 10:38:48 AM,,10:38:15 || 10:38:40 || 10:38:42
4,LOCAL,0,1,0,0,40.40061,40.40061,0,6/19/2018 10:38:49 AM,6/19/2018 10:39:29 AM,,10:39:04
5,LOCAL,0,3,2,0,128.2561,128.2561,0,6/19/2018 10:39:30 AM,6/19/2018 10:41:40 AM,,10:39:46 || 10:39:53 || 10:39:58
6,LOCAL,0,11,1,0,205.5093,205.5093,0,6/19/2018 10:41:41 AM,6/19/2018 10:45:07 AM,,10:42:02 || 10:42:05 || 10:42:14 || 10:42:14 || 10:42:47 || 10:42:58 || 10:43:32 || 10:43:36 || 10:43:59 || 10:44:06 || 10:44:38
7,LOCAL,0,2,0,0,31.28161,31.28161,0,6/19/2018 10:45:08 AM,6/19/2018 10:45:39 AM,,10:45:22 || 10:45:37
8,LOCAL,0,1,0,0,28.66658,28.66658,0,6/19/2018 10:45:40 AM,6/19/2018 10:46:09 AM,,10:46:00
9,LOCAL,0,5,0,0,46.50881,46.50881,0,6/19/2018 10:46:10 AM,6/19/2018 10:46:56 AM,,10:46:19 || 10:46:26 || 10:46:33 || 10:46:36 || 10:46:46
10,LOCAL,0,24,3,0,260.5302,260.5302,0,6/19/2018 10:50:36 AM,6/19/2018 10:51:19 AM,,10:47:03 || 10:47:23 || 10:47:36 || 10:47:54 || 10:48:05 || 10:48:11 || 10:48:30 || 10:48:37 || 10:48:37 || 10:48:45 || 10:49:00 || 10:49:06 || 10:49:20 || 10:49:42 || 10:49:47 || 10:49:52 || 10:50:02 || 10:50:23 || 10:50:30 || 10:50:41 || 10:50:46 || 10:50:59 || 10:51:15 || 10:51:18
11,LOCAL,0,4,2,0,124.7734,124.7734,0,6/19/2018 10:51:20 AM,6/19/2018 10:53:26 AM,,10:52:05 || 10:52:23 || 10:53:00 || 10:53:18
12,LOCAL,0,2,1,0,49.04168,49.04168,0,6/19/2018 10:53:27 AM,,,10:53:48 || 10:53:51
13,,0,0,0,0,0,0,0,,,,
,,,,
,,,,

