Level,Starting Mode,Switches,Shortcuts,Lives Lost,Deaths,Duration in Sec,Duration Local in Sec,Duration Global in Sec,Starting Timestamp,Finishing Timestamp,Switch Timestamps,Shortcut Timestamps
1,LOCAL,3,0,0,0,19.21606,11.73052,7.485547,6/13/2018 2:13:04 PM,6/13/2018 2:13:23 PM,14:13:04 || 14:13:10 || 14:13:21,
2,LOCAL,1,1,0,0,10.95986,0,10.95986,6/13/2018 2:13:24 PM,6/13/2018 2:13:35 PM,14:13:24,14:13:34
3,GLOBAL,4,2,1,0,30.18058,14.94353,15.23706,6/13/2018 2:13:36 PM,6/13/2018 2:14:07 PM,14:13:36 || 14:13:45 || 14:13:55 || 14:14:01,14:14:06 || 14:14:06
4,LOCAL,3,0,0,0,20.91261,6.145061,14.76754,6/13/2018 2:14:08 PM,6/13/2018 2:14:29 PM,14:14:08 || 14:14:17 || 14:14:23,
5,GLOBAL,17,4,2,1,136.9531,73.57237,63.3806,6/13/2018 2:15:58 PM,6/13/2018 2:16:53 PM,14:14:29 || 14:14:36 || 14:14:46 || 14:14:52 || 14:14:58 || 14:15:04 || 14:15:10 || 14:15:17 || 14:15:27 || 14:15:33 || 14:15:43 || 14:15:58 || 14:16:09 || 14:16:19 || 14:16:29 || 14:16:40 || 14:16:50,14:15:03 || 14:15:49 || 14:16:32 || 14:16:41
6,GLOBAL,9,5,0,0,67.75972,38.53489,29.22476,6/13/2018 2:16:54 PM,6/13/2018 2:18:02 PM,14:16:54 || 14:17:04 || 14:17:09 || 14:17:21 || 14:17:27 || 14:17:36 || 14:17:44 || 14:17:49 || 14:17:58,14:17:07 || 14:17:17 || 14:17:52 || 14:17:57 || 14:17:57
7,GLOBAL,8,5,2,0,66.78072,38.803,27.97771,6/13/2018 2:18:03 PM,6/13/2018 2:19:11 PM,14:18:03 || 14:18:13 || 14:18:20 || 14:18:30 || 14:18:36 || 14:18:45 || 14:18:53 || 14:19:04,14:18:15 || 14:18:34 || 14:18:52 || 14:18:55 || 14:19:10
8,GLOBAL,6,3,1,0,53.62442,26.68342,26.94098,6/13/2018 2:19:12 PM,6/13/2018 2:20:06 PM,14:19:12 || 14:19:18 || 14:19:25 || 14:19:36 || 14:19:45 || 14:19:55,14:19:33 || 14:19:49 || 14:20:05
9,LOCAL,3,2,0,0,23.52971,9.788965,13.74073,6/13/2018 2:20:07 PM,6/13/2018 2:20:30 PM,14:20:07 || 14:20:17 || 14:20:27,14:20:19 || 14:20:23
10,GLOBAL,7,3,0,0,54.62909,31.44789,23.18125,6/13/2018 2:20:32 PM,6/13/2018 2:21:26 PM,14:20:32 || 14:20:40 || 14:20:46 || 14:20:56 || 14:21:02 || 14:21:08 || 14:21:19,14:20:35 || 14:20:52 || 14:20:53
11,LOCAL,6,2,1,0,52.83443,27.34183,25.4926,6/13/2018 2:21:27 PM,6/13/2018 2:22:20 PM,14:21:27 || 14:21:33 || 14:21:43 || 14:21:56 || 14:22:06 || 14:22:14,14:21:45 || 14:22:10
12,GLOBAL,42,13,4,1,350.4276,180.3662,170.0616,6/13/2018 2:25:04 PM,6/13/2018 2:28:24 PM,14:22:21 || 14:22:33 || 14:22:39 || 14:22:50 || 14:22:57 || 14:23:07 || 14:23:18 || 14:23:24 || 14:23:31 || 14:23:38 || 14:23:49 || 14:24:00 || 14:24:08 || 14:24:19 || 14:24:25 || 14:24:35 || 14:24:42 || 14:24:48 || 14:25:04 || 14:25:11 || 14:25:16 || 14:25:22 || 14:25:33 || 14:25:40 || 14:25:45 || 14:25:56 || 14:26:08 || 14:26:18 || 14:26:29 || 14:26:38 || 14:26:45 || 14:26:57 || 14:27:04 || 14:27:11 || 14:27:20 || 14:27:26 || 14:27:33 || 14:27:43 || 14:27:53 || 14:28:00 || 14:28:12 || 14:28:20,14:22:57 || 14:23:49 || 14:24:01 || 14:24:07 || 14:24:53 || 14:25:39 || 14:25:45 || 14:25:53 || 14:26:07 || 14:26:37 || 14:27:32 || 14:28:00 || 14:28:24
13,GLOBAL,6,0,0,0,47.72821,21.571,26.15715,6/13/2018 2:28:25 PM,,14:28:25 || 14:28:31 || 14:28:42 || 14:28:52 || 14:28:59 || 14:29:05,
,,,,
,,,,

