Level,Starting Mode,Switches,Shortcuts,Lives Lost,Deaths,Duration in Sec,Duration Local in Sec,Duration Global in Sec,Starting Timestamp,Finishing Timestamp,Switch Timestamps,Shortcut Timestamps
1,LOCAL,0,0,0,0,21.2099,21.2099,0,6/12/2018 4:10:40 PM,6/12/2018 4:11:01 PM,,
2,LOCAL,0,2,0,0,33.71507,33.71507,0,6/12/2018 4:11:04 PM,6/12/2018 4:11:37 PM,,16:11:24 || 16:11:34
3,LOCAL,0,2,0,0,29.12237,29.12237,0,6/12/2018 4:11:39 PM,6/12/2018 4:12:08 PM,,16:11:47 || 16:11:59
4,LOCAL,0,4,0,0,50.69137,50.69137,0,6/12/2018 4:12:09 PM,6/12/2018 4:13:00 PM,,16:12:21 || 16:12:28 || 16:12:42 || 16:12:50
5,LOCAL,0,2,0,0,40.68162,40.68162,0,6/12/2018 4:13:01 PM,6/12/2018 4:13:42 PM,,16:13:11 || 16:13:27
6,LOCAL,0,4,0,0,32.87399,32.87399,0,6/12/2018 4:13:43 PM,6/12/2018 4:14:16 PM,,16:13:56 || 16:13:58 || 16:14:03 || 16:14:15
7,LOCAL,0,3,0,0,24.15648,24.15648,0,6/12/2018 4:14:17 PM,6/12/2018 4:14:41 PM,,16:14:25 || 16:14:32 || 16:14:37
8,LOCAL,0,5,1,0,49.13796,49.13796,0,6/12/2018 4:14:42 PM,6/12/2018 4:15:32 PM,,16:14:52 || 16:14:53 || 16:15:08 || 16:15:18 || 16:15:32
9,LOCAL,0,7,1,0,42.39421,42.39421,0,6/12/2018 4:15:33 PM,6/12/2018 4:16:16 PM,,16:15:40 || 16:15:45 || 16:15:58 || 16:16:01 || 16:16:02 || 16:16:11 || 16:16:16
10,LOCAL,0,14,1,0,83.79015,83.79015,0,6/12/2018 4:16:17 PM,6/12/2018 4:17:41 PM,,16:16:21 || 16:16:24 || 16:16:26 || 16:16:35 || 16:16:45 || 16:16:58 || 16:17:10 || 16:17:10 || 16:17:20 || 16:17:20 || 16:17:26 || 16:17:30 || 16:17:34 || 16:17:38
11,LOCAL,0,6,2,0,54.42071,54.42071,0,6/12/2018 4:17:43 PM,6/12/2018 4:18:38 PM,,16:17:56 || 16:17:56 || 16:17:59 || 16:18:23 || 16:18:30 || 16:18:38
12,LOCAL,0,14,3,1,136.488,136.488,0,6/12/2018 4:19:59 PM,6/12/2018 4:21:05 PM,,16:18:42 || 16:18:59 || 16:19:12 || 16:19:18 || 16:19:26 || 16:19:28 || 16:19:35 || 16:19:50 || 16:20:06 || 16:20:26 || 16:20:35 || 16:20:50 || 16:20:57 || 16:21:01
13,LOCAL,0,10,2,1,74.36062,74.36062,0,6/12/2018 4:21:53 PM,6/12/2018 4:22:26 PM,,16:21:10 || 16:21:22 || 16:21:47 || 16:21:58 || 16:22:01 || 16:22:02 || 16:22:08 || 16:22:13 || 16:22:17 || 16:22:25
,,,,
,,,,

