Level,Starting Mode,Switches,Shortcuts,Lives Lost,Deaths,Duration in Sec,Duration Local in Sec,Duration Global in Sec,Starting Timestamp,Finishing Timestamp,Switch Timestamps,Shortcut Timestamps
1,,0,0,0,0,0,0,0,,,,
2,,0,0,0,0,0,0,0,,,,
3,,0,0,0,0,0,0,0,,,,
4,LOCAL,1,16,0,0,22.96239,2.247213,20.71517,06/14/2018 20:45:15,06/14/2018 20:45:39,20:45:18,20:45:21 || 20:45:23 || 20:45:23 || 20:45:25 || 20:45:26 || 20:45:26 || 20:45:27 || 20:45:27 || 20:45:28 || 20:45:29 || 20:45:31 || 20:45:33 || 20:45:34 || 20:45:37 || 20:45:38 || 20:45:39
5,,0,0,0,0,0,0,0,,,,
6,,0,0,0,0,0,0,0,,,,
7,,0,0,0,0,0,0,0,,,,
8,,0,0,0,0,0,0,0,,,,
9,,0,0,0,0,0,0,0,,,,
10,,0,0,0,0,0,0,0,,,,
11,GLOBAL,2,28,1,0,39.40111,9.487769,29.91336,06/14/2018 20:45:44,,20:46:08 || 20:46:18,20:45:47 || 20:45:47 || 20:45:47 || 20:45:49 || 20:45:50 || 20:45:50 || 20:45:51 || 20:45:52 || 20:45:53 || 20:45:54 || 20:45:55 || 20:45:55 || 20:45:56 || 20:45:57 || 20:45:59 || 20:46:02 || 20:46:02 || 20:46:04 || 20:46:05 || 20:46:06 || 20:46:09 || 20:46:12 || 20:46:14 || 20:46:15 || 20:46:21 || 20:46:21 || 20:46:22 || 20:46:23
12,,0,0,0,0,0,0,0,,,,
13,,0,0,0,0,0,0,0,,,,
,,,,
,,,,

