Words,Pair No,Correct,Reaction Time
Park/Note/Konto,0,True,6.498586
Nummer/Anruf/Buch,1,True,3.766521
Wasser/Mine/Streuer,2,True,8.630833
Zeit/Kapsel/Schiff,3,False,0
Start/Alarm/Schuss,4,False,0
Party/Tuch/Bad,5,False,0
Weg/Zeile/Bar,6,True,5.483082
Bad/Blume/Uhr,7,False,0
Album/Name/Pflege,8,False,0
Stopp/Tasche/Turm,9,True,5.882087
Jahr/Stück/Schicht,10,False,9.847978
Land/Milch/Haus,11,False,4.165032

