Level,Starting Mode,Switches,Shortcuts,Lives Lost,Deaths,Duration in Sec,Duration Local in Sec,Duration Global in Sec,Starting Timestamp,Finishing Timestamp,Switch Timestamps,Shortcut Timestamps
1,GLOBAL,2,0,0,0,9.646968,7.996481,1.650488,6/11/2018 11:38:33 AM,6/11/2018 11:38:43 AM,11:38:33 || 11:38:41,
2,LOCAL,3,1,0,0,17.18915,9.746223,7.442933,6/11/2018 11:38:50 AM,6/11/2018 11:39:07 AM,11:38:50 || 11:38:55 || 11:39:05,11:39:06
3,LOCAL,3,1,1,0,18.56168,8.661054,9.900614,6/11/2018 11:39:09 AM,6/11/2018 11:39:28 AM,11:39:09 || 11:39:17 || 11:39:25,11:39:26
4,LOCAL,3,1,0,0,22.34081,8.139129,14.20166,6/11/2018 11:39:29 AM,6/11/2018 11:39:52 AM,11:39:29 || 11:39:39 || 11:39:47,11:39:48
5,GLOBAL,11,8,1,0,79.95833,46.12117,33.83717,6/11/2018 11:39:53 AM,6/11/2018 11:41:13 AM,11:39:53 || 11:40:01 || 11:40:07 || 11:40:12 || 11:40:22 || 11:40:32 || 11:40:37 || 11:40:46 || 11:40:51 || 11:40:57 || 11:41:05,11:40:14 || 11:40:21 || 11:40:34 || 11:40:36 || 11:40:50 || 11:40:59 || 11:41:05 || 11:41:08
6,GLOBAL,11,7,2,0,89.17868,42.58776,46.59079,6/11/2018 11:41:15 AM,6/11/2018 11:42:45 AM,11:41:15 || 11:41:20 || 11:41:28 || 11:41:35 || 11:41:45 || 11:41:55 || 11:42:06 || 11:42:15 || 11:42:27 || 11:42:34 || 11:42:41,11:41:24 || 11:41:29 || 11:41:34 || 11:41:54 || 11:41:59 || 11:42:35 || 11:42:39
7,LOCAL,5,4,1,0,41.18879,21.46939,19.71939,6/11/2018 11:42:46 AM,6/11/2018 11:43:27 AM,11:42:46 || 11:42:54 || 11:43:04 || 11:43:12 || 11:43:23,11:42:49 || 11:43:01 || 11:43:22 || 11:43:26
8,LOCAL,7,9,2,0,56.48388,27.38132,29.1025,6/11/2018 11:43:30 AM,6/11/2018 11:44:27 AM,11:43:30 || 11:43:35 || 11:43:47 || 11:43:59 || 11:44:09 || 11:44:17 || 11:44:23,11:43:36 || 11:43:46 || 11:43:55 || 11:43:57 || 11:44:05 || 11:44:14 || 11:44:14 || 11:44:23 || 11:44:27
9,LOCAL,5,5,0,0,38.29193,17.81204,20.4799,6/11/2018 11:44:29 AM,6/11/2018 11:45:07 AM,11:44:29 || 11:44:38 || 11:44:46 || 11:44:54 || 11:45:03,11:44:45 || 11:44:52 || 11:44:53 || 11:44:59 || 11:45:06
10,LOCAL,4,3,0,0,31.46403,14.73293,16.73112,6/11/2018 11:45:08 AM,6/11/2018 11:45:39 AM,11:45:08 || 11:45:19 || 11:45:26 || 11:45:31,11:45:17 || 11:45:24 || 11:45:28
11,LOCAL,11,10,3,1,86.51337,34.33495,52.17834,6/11/2018 11:46:25 AM,6/11/2018 11:47:10 AM,11:45:41 || 11:45:49 || 11:45:58 || 11:46:03 || 11:46:12 || 11:46:18 || 11:46:25 || 11:46:37 || 11:46:46 || 11:46:54 || 11:47:00,11:45:50 || 11:46:07 || 11:46:22 || 11:46:23 || 11:46:29 || 11:46:32 || 11:46:40 || 11:46:46 || 11:47:02 || 11:47:09
12,GLOBAL,6,3,0,0,48.67978,29.38316,19.29664,6/11/2018 11:47:11 AM,6/11/2018 11:48:00 AM,11:47:11 || 11:47:22 || 11:47:31 || 11:47:38 || 11:47:44 || 11:47:56,11:47:46 || 11:47:50 || 11:47:55
13,LOCAL,19,11,3,1,148.5334,67.8005,80.73312,6/11/2018 11:49:19 AM,6/11/2018 11:50:38 AM,11:48:01 || 11:48:11 || 11:48:19 || 11:48:31 || 11:48:41 || 11:48:53 || 11:48:59 || 11:49:04 || 11:49:19 || 11:49:26 || 11:49:34 || 11:49:40 || 11:49:45 || 11:49:52 || 11:50:01 || 11:50:09 || 11:50:16 || 11:50:28 || 11:50:35,11:48:15 || 11:48:26 || 11:48:41 || 11:48:52 || 11:48:55 || 11:49:12 || 11:50:06 || 11:50:16 || 11:50:23 || 11:50:30 || 11:50:37
,,,,
,,,,

