Level,Starting Mode,Switches,Shortcuts,Lives Lost,Deaths,Duration in Sec,Duration Local in Sec,Duration Global in Sec,Starting Timestamp,Finishing Timestamp,Switch Timestamps,Shortcut Timestamps
1,LOCAL,0,0,0,0,17.62291,17.62291,0,6/11/2018 12:37:24 PM,6/11/2018 12:37:42 PM,,
2,LOCAL,0,2,0,0,23.37307,23.37307,0,6/11/2018 12:37:54 PM,6/11/2018 12:38:18 PM,,12:38:01 || 12:38:13
3,LOCAL,0,4,0,0,31.32598,31.32598,0,6/11/2018 12:38:20 PM,6/11/2018 12:38:52 PM,,12:38:27 || 12:38:30 || 12:38:34 || 12:38:47
4,LOCAL,0,2,0,0,34.2132,34.2132,0,6/11/2018 12:38:53 PM,6/11/2018 12:39:27 PM,,12:39:04 || 12:39:27
5,LOCAL,0,4,0,0,89.83471,89.83471,0,6/11/2018 12:39:28 PM,6/11/2018 12:40:58 PM,,12:39:37 || 12:40:10 || 12:40:43 || 12:40:49
6,LOCAL,0,10,1,0,132.9533,132.9533,0,6/11/2018 12:40:58 PM,6/11/2018 12:43:12 PM,,12:41:10 || 12:41:19 || 12:41:26 || 12:41:29 || 12:41:56 || 12:41:57 || 12:42:10 || 12:42:16 || 12:42:26 || 12:43:02
7,LOCAL,0,14,2,0,84.59197,84.59197,0,6/11/2018 12:43:16 PM,6/11/2018 12:44:42 PM,,12:43:20 || 12:43:30 || 12:43:33 || 12:43:33 || 12:43:42 || 12:44:01 || 12:44:07 || 12:44:10 || 12:44:19 || 12:44:27 || 12:44:28 || 12:44:28 || 12:44:33 || 12:44:38
8,LOCAL,0,5,1,0,60.82442,60.82442,0,6/11/2018 12:44:43 PM,6/11/2018 12:45:44 PM,,12:44:54 || 12:45:09 || 12:45:18 || 12:45:39 || 12:45:44
9,LOCAL,0,6,0,0,49.12747,49.12747,0,6/11/2018 12:45:45 PM,6/11/2018 12:46:34 PM,,12:45:49 || 12:45:51 || 12:45:56 || 12:46:09 || 12:46:16 || 12:46:25
10,LOCAL,0,10,2,0,59.66647,59.66647,0,6/11/2018 12:46:35 PM,6/11/2018 12:47:35 PM,,12:46:38 || 12:46:47 || 12:46:52 || 12:46:58 || 12:47:06 || 12:47:12 || 12:47:16 || 12:47:22 || 12:47:32 || 12:47:35
11,LOCAL,0,0,0,0,0,0,0,6/11/2018 12:47:36 PM,,,
12,,0,0,0,0,0,0,0,,,,
13,,0,0,0,0,0,0,0,,,,
,,,,
,,,,

